 $B:#F|$+$i(B1$B=54V$5$h$J$i(B1999$BG/%9%Z%7%c%k$r$7$^$9!#(B
$B$3$l$O!"%/%i%9$4$H$K(B1999$BG/$r?6$jJV$jNI$+$C$?$3$H!"$d$j;D$7$?$3$H$J$IJ|Aw$G8@$&$b$N$G$9!#Bh(B1$B2sL\$O!"(B1-1$B!"(B1-6$B!"(B2-4$B!"(B3-2$B$NH/I=$G$9!#(B


$B$3$l$G$5$h$J$i(B1999$BG/%9%Z%7%c%k$r=*$o$j$^$9(B.
